[
  {
    "item": "Item",
    "quantity": null,
    "cost": null
  },
  {
    "item": "Absorbent Substrate",
    "quantity": 1,
    "cost": 1500,
    "image": "https://static.wikia.nocookie.net/arksurvivalevolved_gamepedia/images/a/a8/Absorbent_Substrate.png"
  },
  {
    "item": "Aggeravic Mushroom",
    "quantity": 50,
    "cost": 46,
    "image": "https://static.wikia.nocookie.net/arksurvivalevolved_gamepedia/images/d/d7/Aggeravic_Mushroom_%28Aberration%29.png"
  },
  {
    "item": "Air Drums Emote",
    "quantity": 1,
    "cost": 50000,
    "image": "https://static.wikia.nocookie.net/arksurvivalevolved_gamepedia/images/8/8a/Air_Drums_Emote.png"
  },
  {
    "item": "Air Guitar Emote",
    "quantity": 1,
    "cost": 50000,
    "image": "https://static.wikia.nocookie.net/arksurvivalevolved_gamepedia/images/5/50/Air_Guitar_Emote.png"
  },
  {
    "item": "Amarberry",
    "quantity": 50,
    "cost": 10,
    "image": "https://static.wikia.nocookie.net/arksurvivalevolved_gamepedia/images/6/60/Amarberry.png"
  },
  {
    "item": "Ammonite Bile",
    "quantity": 1,
    "cost": 350,
    "image": "https://static.wikia.nocookie.net/arksurvivalevolved_gamepedia/images/f/fd/Ammonite_Bile.png"
  },
  {
    "item": "Aquatic Mushroom",
    "quantity": 20,
    "cost": 95,
    "image": "https://static.wikia.nocookie.net/arksurvivalevolved_gamepedia/images/d/de/Aquatic_Mushroom_%28Aberration%29.png"
  },
  {
    "item": "Archer Flex Emote",
    "quantity": 1,
    "cost": 50000,
    "image": "https://static.wikia.nocookie.net/arksurvivalevolved_gamepedia/images/e/e8/Archer_Flex_Emote.png"
  },
  {
    "item": "Ascerbic Mushroom",
    "quantity": 20,
    "cost": 95,
    "image": "https://static.wikia.nocookie.net/arksurvivalevolved_gamepedia/images/a/a7/Ascerbic_Mushroom_%28Aberration%29.png"
  },
  {
    "item": "Auric Mushroom",
    "quantity": 20,
    "cost": 105,
    "image": "https://static.wikia.nocookie.net/arksurvivalevolved_gamepedia/images/0/0a/Auric_Mushroom_%28Aberration%29.png"
  },
  {
    "item": "Azulberry",
    "quantity": 50,
    "cost": 10,
    "image": "https://static.wikia.nocookie.net/arksurvivalevolved_gamepedia/images/2/2f/Azulberry.png"
  },
  {
    "item": "Belly Rub Emote",
    "quantity": 1,
    "cost": 50000,
    "image": "https://static.wikia.nocookie.net/arksurvivalevolved_gamepedia/images/d/d2/Belly_Rub_Emote.png"
  },
  {
    "item": "Bicep Smooch Emote",
    "quantity": 1,
    "cost": 50000,
    "image": "https://static.wikia.nocookie.net/arksurvivalevolved_gamepedia/images/7/79/Bicep_Smooch_Emote.png"
  },
  {
    "item": "Black Pearl",
    "quantity": 1,
    "cost": 300,
    "image": "https://static.wikia.nocookie.net/arksurvivalevolved_gamepedia/images/4/4c/Black_Pearl.png"
  },
  {
    "item": "Blue Gem",
    "quantity": 20,
    "cost": 95,
    "image": "https://static.wikia.nocookie.net/arksurvivalevolved_gamepedia/images/1/13/Blue_Gem_%28Aberration%29.png"
  },
  {
    "item": "Bunny Hop Dance Emote",
    "quantity": 1,
    "cost": 50000,
    "image": "https://static.wikia.nocookie.net/arksurvivalevolved_gamepedia/images/7/78/Bunny_Hop_Dance_Emote.png"
  },
  {
    "item": "Cactus Sap",
    "quantity": 50,
    "cost": 24,
    "image": "https://static.wikia.nocookie.net/arksurvivalevolved_gamepedia/images/0/0c/Cactus_Sap_%28Scorched_Earth%29.png"
  },
  {
    "item": "Caroling Emote",
    "quantity": 1,
    "cost": 50000,
    "image": "https://static.wikia.nocookie.net/arksurvivalevolved_gamepedia/images/3/3b/Caroling_Emote.png"
  },
  {
    "item": "Cementing Paste",
    "quantity": 25,
    "cost": 75,
    "image": "https://static.wikia.nocookie.net/arksurvivalevolved_gamepedia/images/0/03/Cementing_Paste.png"
  },
  {
    "item": "Charcoal",
    "quantity": 25,
    "cost": 30,
    "image": "https://static.wikia.nocookie.net/arksurvivalevolved_gamepedia/images/4/4f/Charcoal.png"
  },
  {
    "item": "Chitin",
    "quantity": 25,
    "cost": 60,
    "image": "https://static.wikia.nocookie.net/arksurvivalevolved_gamepedia/images/a/a1/Chitin.png"
  },
  {
    "item": "Clay",
    "quantity": 50,
    "cost": 45,
    "image": "https://static.wikia.nocookie.net/arksurvivalevolved_gamepedia/images/3/37/Clay_%28Scorched_Earth%29.png"
  },
  {
    "item": "Cryopod",
    "quantity": 1,
    "cost": 500,
    "image": "https://static.wikia.nocookie.net/arksurvivalevolved_gamepedia/images/3/3e/Cryopod.png"
  },
  {
    "item": "Crystal",
    "quantity": 10,
    "cost": 115,
    "image": "https://static.wikia.nocookie.net/arksurvivalevolved_gamepedia/images/3/31/Crystal.png"
  },
  {
    "item": "Dance Emote",
    "quantity": 1,
    "cost": 50000,
    "image": "https://static.wikia.nocookie.net/arksurvivalevolved_gamepedia/images/2/2f/Dance_Emote.png"
  },
  {
    "item": "Electronics",
    "quantity": 5,
    "cost": 700,
    "image": "https://static.wikia.nocookie.net/arksurvivalevolved_gamepedia/images/d/dd/Electronics.png"
  },
  {
    "item": "Element",
    "quantity": 1,
    "cost": 2000,
    "image": "https://static.wikia.nocookie.net/arksurvivalevolved_gamepedia/images/a/a5/Element.png"
  },
  {
    "item": "Fiber",
    "quantity": 50,
    "cost": 12,
    "image": "https://static.wikia.nocookie.net/arksurvivalevolved_gamepedia/images/4/45/Fiber.png"
  },
  {
    "item": "Flint",
    "quantity": 50,
    "cost": 18,
    "image": "https://static.wikia.nocookie.net/arksurvivalevolved_gamepedia/images/2/2e/Flint.png"
  },
  {
    "item": "Flirty Emote",
    "quantity": 1,
    "cost": 50000,
    "image": "https://static.wikia.nocookie.net/arksurvivalevolved_gamepedia/images/9/9e/Flirty_Emote.png"
  },
  {
    "item": "Food Coma Emote",
    "quantity": 1,
    "cost": 50000,
    "image": "https://static.wikia.nocookie.net/arksurvivalevolved_gamepedia/images/b/bc/Food_Coma_Emote.png"
  },
  {
    "item": "Gasoline",
    "quantity": 20,
    "cost": 175,
    "image": "https://static.wikia.nocookie.net/arksurvivalevolved_gamepedia/images/6/6e/Gasoline.png"
  },
  {
    "item": "Green Gem",
    "quantity": 25,
    "cost": 55,
    "image": "https://static.wikia.nocookie.net/arksurvivalevolved_gamepedia/images/c/c3/Green_Gem_%28Aberration%29.png"
  },
  {
    "item": "Gunpowder",
    "quantity": 20,
    "cost": 150,
    "image": "https://static.wikia.nocookie.net/arksurvivalevolved_gamepedia/images/a/ae/Gunpowder.png"
  },
  {
    "item": "Happy Clap Emote",
    "quantity": 1,
    "cost": 50000,
    "image": "https://static.wikia.nocookie.net/arksurvivalevolved_gamepedia/images/7/79/Happy_Clap_Emote.png"
  },
  {
    "item": "Heart Emote",
    "quantity": 1,
    "cost": 50000,
    "image": "https://static.wikia.nocookie.net/arksurvivalevolved_gamepedia/images/a/a1/Heart_Emote.png"
  },
  {
    "item": "Hide",
    "quantity": 50,
    "cost": 60,
    "image": "https://static.wikia.nocookie.net/arksurvivalevolved_gamepedia/images/9/96/Hide.png"
  },
  {
    "item": "Hungry Emote",
    "quantity": 1,
    "cost": 50000,
    "image": "https://static.wikia.nocookie.net/arksurvivalevolved_gamepedia/images/1/1b/Hungry_Emote.png"
  },
  {
    "item": "Keratin",
    "quantity": 25,
    "cost": 60,
    "image": "https://static.wikia.nocookie.net/arksurvivalevolved_gamepedia/images/8/88/Keratin.png"
  },
  {
    "item": "Lootcrate",
    "quantity": 1,
    "cost": null,
    "image": "https://static.wikia.nocookie.net/arksurvivalevolved_gamepedia/images/3/31/Lootcrate_%28Genesis_Part_1%29.png"
  },
  {
    "item": "Mejoberry",
    "quantity": 50,
    "cost": 18,
    "image": "https://static.wikia.nocookie.net/arksurvivalevolved_gamepedia/images/0/00/Mejoberry.png"
  },
  {
    "item": "Metal",
    "quantity": 10,
    "cost": 150,
    "image": "https://static.wikia.nocookie.net/arksurvivalevolved_gamepedia/images/e/e1/Metal.png"
  },
  {
    "item": "Metal Ingot",
    "quantity": 5,
    "cost": 195,
    "image": "https://static.wikia.nocookie.net/arksurvivalevolved_gamepedia/images/3/37/Metal_Ingot.png"
  },
  {
    "item": "Mosh Pit Emote",
    "quantity": 1,
    "cost": 50000,
    "image": "https://static.wikia.nocookie.net/arksurvivalevolved_gamepedia/images/a/a9/Mosh_Pit_Emote.png"
  },
  {
    "item": "Narcoberry",
    "quantity": 20,
    "cost": 80,
    "image": "https://static.wikia.nocookie.net/arksurvivalevolved_gamepedia/images/2/29/Narcoberry.png"
  },
  {
    "item": "Nutcracker Dance Emote",
    "quantity": 1,
    "cost": 50000,
    "image": "https://static.wikia.nocookie.net/arksurvivalevolved_gamepedia/images/3/33/Nutcracker_Dance_Emote.png"
  },
  {
    "item": "Obsidian",
    "quantity": 5,
    "cost": 180,
    "image": "https://static.wikia.nocookie.net/arksurvivalevolved_gamepedia/images/2/23/Obsidian.png"
  },
  {
    "item": "Oil",
    "quantity": 20,
    "cost": 120,
    "image": "https://static.wikia.nocookie.net/arksurvivalevolved_gamepedia/images/0/06/Oil.png"
  },
  {
    "item": "Organic Polymer",
    "quantity": 5,
    "cost": 500,
    "image": "https://static.wikia.nocookie.net/arksurvivalevolved_gamepedia/images/1/13/Organic_Polymer.png"
  },
  {
    "item": "Panic Emote",
    "quantity": 1,
    "cost": 50000,
    "image": "https://static.wikia.nocookie.net/arksurvivalevolved_gamepedia/images/d/d5/Panic_Emote.png"
  },
  {
    "item": "Pelt",
    "quantity": 25,
    "cost": 65,
    "image": "https://static.wikia.nocookie.net/arksurvivalevolved_gamepedia/images/4/45/Pelt.png"
  },
  {
    "item": "Plant Species X Seed",
    "quantity": 1,
    "cost": 1000,
    "image": "https://static.wikia.nocookie.net/arksurvivalevolved_gamepedia/images/f/f4/Plant_Species_X_Seed.png"
  },
  {
    "item": "Plant Species Y Seed",
    "quantity": 1,
    "cost": 1000,
    "image": "https://static.wikia.nocookie.net/arksurvivalevolved_gamepedia/images/4/46/Plant_Species_Y_Seed_%28Scorched_Earth%29.png"
  },
  {
    "item": "Plant Species Z Seed",
    "quantity": 1,
    "cost": 1000,
    "image": "https://static.wikia.nocookie.net/arksurvivalevolved_gamepedia/images/7/71/Plant_Species_Z_Seed_%28Aberration%29.png"
  },
  {
    "item": "Propellant",
    "quantity": 5,
    "cost": 190,
    "image": "https://static.wikia.nocookie.net/arksurvivalevolved_gamepedia/images/2/2f/Propellant_%28Scorched_Earth%29.png"
  },
  {
    "item": "Rare Flower",
    "quantity": 5,
    "cost": 120,
    "image": "https://static.wikia.nocookie.net/arksurvivalevolved_gamepedia/images/b/bb/Rare_Flower.png"
  },
  {
    "item": "Rare Mushroom",
    "quantity": 5,
    "cost": 120,
    "image": "https://static.wikia.nocookie.net/arksurvivalevolved_gamepedia/images/3/30/Rare_Mushroom.png"
  },
  {
    "item": "Raw Meat",
    "quantity": 20,
    "cost": 25,
    "image": "https://static.wikia.nocookie.net/arksurvivalevolved_gamepedia/images/e/e9/Raw_Meat.png"
  },
  {
    "item": "Raw Salt",
    "quantity": 50,
    "cost": 65,
    "image": "https://static.wikia.nocookie.net/arksurvivalevolved_gamepedia/images/4/47/Raw_Salt_%28Scorched_Earth%29.png"
  },
  {
    "item": "Red Gem",
    "quantity": 10,
    "cost": 125,
    "image": "https://static.wikia.nocookie.net/arksurvivalevolved_gamepedia/images/a/a6/Red_Gem_%28Aberration%29.png"
  },
  {
    "item": "Sand",
    "quantity": 50,
    "cost": 28,
    "image": "https://static.wikia.nocookie.net/arksurvivalevolved_gamepedia/images/0/0c/Sand_%28Scorched_Earth%29.png"
  },
  {
    "item": "Sap",
    "quantity": 5,
    "cost": 150,
    "image": "https://static.wikia.nocookie.net/arksurvivalevolved_gamepedia/images/7/73/Sap.png"
  },
  {
    "item": "Silica Pearls",
    "quantity": 5,
    "cost": 125,
    "image": "https://static.wikia.nocookie.net/arksurvivalevolved_gamepedia/images/4/4a/Silica_Pearls.png"
  },
  {
    "item": "Silk",
    "quantity": 50,
    "cost": 48,
    "image": "https://static.wikia.nocookie.net/arksurvivalevolved_gamepedia/images/7/7c/Silk_%28Scorched_Earth%29.png"
  },
  {
    "item": "Sparkpowder",
    "quantity": 50,
    "cost": 50,
    "image": "https://static.wikia.nocookie.net/arksurvivalevolved_gamepedia/images/5/56/Sparkpowder.png"
  },
  {
    "item": "Stimberry",
    "quantity": 20,
    "cost": 80,
    "image": "https://static.wikia.nocookie.net/arksurvivalevolved_gamepedia/images/c/cd/Stimberry.png"
  },
  {
    "item": "Stone",
    "quantity": 50,
    "cost": 40,
    "image": "https://static.wikia.nocookie.net/arksurvivalevolved_gamepedia/images/d/d4/Stone.png"
  },
  {
    "item": "Sulfur",
    "quantity": 5,
    "cost": 125,
    "image": "https://static.wikia.nocookie.net/arksurvivalevolved_gamepedia/images/c/cf/Sulfur_%28Scorched_Earth%29.png"
  },
  {
    "item": "Thatch",
    "quantity": 50,
    "cost": 20,
    "image": "https://static.wikia.nocookie.net/arksurvivalevolved_gamepedia/images/5/51/Thatch.png"
  },
  {
    "item": "Tintoberry",
    "quantity": 50,
    "cost": 10,
    "image": "https://static.wikia.nocookie.net/arksurvivalevolved_gamepedia/images/d/dd/Tintoberry.png"
  },
  {
    "item": "Wood",
    "quantity": 50,
    "cost": 25,
    "image": "https://static.wikia.nocookie.net/arksurvivalevolved_gamepedia/images/d/df/Wood.png"
  },
  {
    "item": "Zombie Emote",
    "quantity": 1,
    "cost": 50000,
    "image": "https://static.wikia.nocookie.net/arksurvivalevolved_gamepedia/images/e/ef/Zombie_Emote.png"
  }
]